{
  "success": true,
  "data": [
    {
      "id": 1,
      "isbn": "9787115428028",
      "title": "Python编程从入门到实践",
      "author": "Eric Matthes",
      "publisher": "人民邮电出版社",
      "price": 89.00,
      "description": "Python入门经典"
    }
  ],
  "pagination": {
    "page": 1,
    "per_page": 10,
    "total": 50,
    "total_pages": 5
  }
}